í†µê³„ì‹¤ìŠµ I. íšŒê·€ë¶„ì„, ARIMA ëª¨í˜•
…
.scroll-output[

- Rì—ê²Œ ìš°ë¦¬ê°€ ëª¨ë¸ë§í•  ì‹œê³„ì—´ì´ ì´ 8ê°œì„ì„ ì•Œë ¤ì¤˜ì•¼í•¨

- `as_tsibble()`ì„ ì´ìš©í•  ìˆ˜ ìˆìŒ

```r
disease3 <- disease2 |> 
    mutate(Date = yearmonth(Date)) |> 
    as_tsibble(key = c(Sex, Group), index = Date)
disease3
```

```
## # A tsibble: 1,127 x 4 [1M]
## # Key:       Sex, Group [8]
##    Sex    Group       Date     N
##    <chr>  <chr>      <mth> <dbl>
##  1 Female 10_14ì„¸ 2010 Jan   114
##  2 Female 10_14ì„¸ 2010 Mar   106
##  3 Female 10_14ì„¸ 2010 Apr   120
##  4 Female 10_14ì„¸ 2010 May   112
##  5 Female 10_14ì„¸ 2010 Jun   122
##  6 Female 10_14ì„¸ 2010 Jul   116
##  7 Female 10_14ì„¸ 2010 Aug   138
##  8 Female 10_14ì„¸ 2010 Sep   122
##  9 Female 10_14ì„¸ 2010 Oct   112
## 10 Female 10_14ì„¸ 2010 Nov   104
## # â€¦ with 1,117 more rows
```
…
# .brand-red[ì‹œê³„ì—´ ìë£Œ ë‹¤ë£¨ê¸°]

.scroll-output[

- `fill_gaps()` ì´ìš© ê²°ì¸¡ì¹˜ ëŒ€ì¹˜

```r
disease4 <- disease3 |> 
    fill_gaps(N = 121L, .full = TRUE)
disease4
```

```
## # A tsibble: 1,128 x 4 [1M]
## # Key:       Sex, Group [8]
##    Sex    Group       Date     N
##    <chr>  <chr>      <mth> <dbl>
##  1 Female 10_14ì„¸ 2010 Jan   114
##  2 Female 10_14ì„¸ 2010 Feb   121
##  3 Female 10_14ì„¸ 2010 Mar   106
##  4 Female 10_14ì„¸ 2010 Apr   120
##  5 Female 10_14ì„¸ 2010 May   112
##  6 Female 10_14ì„¸ 2010 Jun   122
##  7 Female 10_14ì„¸ 2010 Jul   116
##  8 Female 10_14ì„¸ 2010 Aug   138
##  9 Female 10_14ì„¸ 2010 Sep   122
## 10 Female 10_14ì„¸ 2010 Oct   112
## # â€¦ with 1,118 more rows
```
…
